[
    {
        "component": "FTErrorBankDecoder",
        "entity": {
            "axis": [
                {
                    "labels": [
                        "FTError",
                        "DaqErrorFragmentThrottled",
                        "DaqErrorBXIDCorrupted",
                        "DaqErrorSyncBXIDCorrupted",
                        "DaqErrorFragmentMissing",
                        "DaqErrorFragmentTruncated",
                        "DaqErrorIdleBXIDCorrupted",
                        "DaqErrorFragmentMalformed",
                        "DaqErrorEVIDJumped",
                        "DaqErrorAlignFifoFull",
                        "DaqErrorFEfragSizeWrong"
                    ],
                    "maxValue": 10.5,
                    "minValue": -0.5,
                    "nBins": 11,
                    "title": "Error Bank"
                }
            ],
            "bins": [
                0,
                0,
                0,
                600,
                0,
                0,
                0,
                0,
                0,
                0,
                0,
                0,
                0
            ],
            "dimension": 1,
            "empty": false,
            "nEntries": 600,
            "title": "Errors",
            "type": "histogram:Histogram:f"
        },
        "name": "ErrorsPerErrorBankType"
    },
    {
        "component": "FTErrorBankDecoder",
        "entity": {
            "axis": [
                {
                    "labels": [
                        "T1L0Q0",
                        "T1L0Q1",
                        "T1L0Q2",
                        "T1L0Q3",
                        "T1L1Q0",
                        "T1L1Q1",
                        "T1L1Q2",
                        "T1L1Q3",
                        "T1L2Q0",
                        "T1L2Q1",
                        "T1L2Q2",
                        "T1L2Q3",
                        "T1L3Q0",
                        "T1L3Q1",
                        "T1L3Q2",
                        "T1L3Q3",
                        "T2L0Q0",
                        "T2L0Q1",
                        "T2L0Q2",
                        "T2L0Q3",
                        "T2L1Q0",
                        "T2L1Q1",
                        "T2L1Q2",
                        "T2L1Q3",
                        "T2L2Q0",
                        "T2L2Q1",
                        "T2L2Q2",
                        "T2L2Q3",
                        "T2L3Q0",
                        "T2L3Q1",
                        "T2L3Q2",
                        "T2L3Q3",
                        "T3L0Q0",
                        "T3L0Q1",
                        "T3L0Q2",
                        "T3L0Q3",
                        "T3L1Q0",
                        "T3L1Q1",
                        "T3L1Q2",
                        "T3L1Q3",
                        "T3L2Q0",
                        "T3L2Q1",
                        "T3L2Q2",
                        "T3L2Q3",
                        "T3L3Q0",
                        "T3L3Q1",
                        "T3L3Q2",
                        "T3L3Q3"
                    ],
                    "maxValue": 47.5,
                    "minValue": -0.5,
                    "nBins": 48,
                    "title": "Quarter"
                },
                {
                    "labels": [
                        "D1P0",
                        "D1P1",
                        "D2P0",
                        "D2P1",
                        "D3P0",
                        "D3P1"
                    ],
                    "maxValue": 5.5,
                    "minValue": -0.5,
                    "nBins": 6,
                    "title": "Port"
                }
            ],
            "bins": [
                0,
                0,
                0,
                0,
                0,
                0,
                0,
                0,
                0,
                0,
                0,
                0,
                0,
                0,
                0,
                0,
                0,
                0,
                0,
                0,
                0,
                0,
                0,
                0,
                0,
                0,
                0,
                0,
                0,
                0,
                0,
                0,
                0,
                0,
                0,
                0,
                0,
                0,
                0,
                0,
                0,
                0,
                0,
                0,
                0,
                0,
                0,
                0,
                0,
                0,
                0,
                0,
                0,
                0,
                100,
                0,
                0,
                0,
                0,
                0,
                0,
                0,
                0,
                0,
                0,
                0,
                0,
                0,
                0,
                0,
                0,
                0,
                0,
                0,
                0,
                0,
                0,
                0,
                0,
                0,
                0,
                0,
                0,
                100,
                0,
                0,
                0,
                0,
                0,
                0,
                0,
                0,
                0,
                0,
                0,
                0,
                0,
                0,
                0,
                0,
                0,
                0,
                0,
                0,
                0,
                0,
                0,
                0,
                0,
                0,
                0,
                0,
                0,
                0,
                0,
                0,
                0,
                0,
                0,
                0,
                0,
                0,
                0,
                0,
                0,
                0,
                0,
                0,
                0,
                0,
                0,
                0,
                0,
                0,
                0,
                0,
                0,
                0,
                0,
                0,
                0,
                0,
                0,
                0,
                0,
                0,
                0,
                0,
                0,
                0,
                0,
                0,
                0,
                100,
                0,
                0,
                0,
                0,
                0,
                0,
                0,
                0,
                0,
                0,
                0,
                0,
                0,
                0,
                0,
                0,
                0,
                0,
                0,
                0,
                0,
                0,
                0,
                0,
                0,
                0,
                0,
                0,
                0,
                0,
                0,
                0,
                0,
                0,
                0,
                0,
                0,
                0,
                0,
                0,
                0,
                0,
                0,
                0,
                0,
                0,
                0,
                0,
                0,
                0,
                0,
                0,
                0,
                0,
                0,
                0,
                0,
                0,
                0,
                0,
                0,
                0,
                0,
                0,
                0,
                0,
                0,
                0,
                0,
                0,
                0,
                0,
                0,
                0,
                0,
                0,
                0,
                0,
                0,
                0,
                0,
                0,
                0,
                0,
                0,
                0,
                0,
                0,
                0,
                0,
                0,
                0,
                0,
                0,
                0,
                0,
                0,
                0,
                0,
                0,
                0,
                0,
                0,
                0,
                0,
                0,
                0,
                0,
                0,
                0,
                0,
                0,
                0,
                0,
                0,
                0,
                0,
                0,
                0,
                0,
                0,
                0,
                0,
                0,
                0,
                0,
                0,
                0,
                0,
                0,
                0,
                0,
                0,
                100,
                0,
                0,
                0,
                0,
                0,
                0,
                0,
                0,
                0,
                0,
                0,
                0,
                0,
                0,
                0,
                0,
                0,
                0,
                0,
                0,
                0,
                0,
                0,
                0,
                0,
                0,
                100,
                0,
                0,
                0,
                0,
                0,
                0,
                0,
                0,
                0,
                100,
                0,
                0,
                0,
                0,
                0,
                0,
                0,
                0,
                0,
                0,
                0,
                0,
                0,
                0,
                0,
                0,
                0,
                0,
                0,
                0,
                0,
                0,
                0,
                0,
                0,
                0,
                0,
                0,
                0,
                0,
                0,
                0,
                0,
                0,
                0,
                0,
                0,
                0,
                0,
                0,
                0,
                0,
                0,
                0,
                0,
                0,
                0,
                0,
                0,
                0,
                0,
                0,
                0,
                0,
                0,
                0,
                0,
                0,
                0,
                0,
                0,
                0,
                0,
                0,
                0,
                0,
                0,
                0,
                0,
                0,
                0,
                0,
                0,
                0,
                0
            ],
            "dimension": 2,
            "empty": false,
            "nEntries": 600,
            "title": "Errors per Bank Location",
            "type": "histogram:Histogram:d"
        },
        "name": "errorsPerBankLocation"
    }
]
